{
  "name": "@dropfort/dropfort_build",
  "description": "A basic Drupal project to give a starting point for development.",
  "private": true,
  "scripts": {
    "preinstall": "npx npm-force-resolutions || true",
    "init": "composer install && npm install",
    "commit": "npx git-cz",
    "release": "standard-version",
    "release:qa": "npm run release -- --prerelease rc",
    "browsersync": "browser-sync start --config=/var/www/html/.browsersync.js",
    "eslint": "eslint .",
    "prettier": "prettier '**/*.{js,mjs,cjs}'",
    "lint": "npm run lint:scripts && npm run lint:php",
    "lint:fix": "npm run lint:scripts:fix && npm run lint:php:fix",
    "lint:scripts": "npm run eslint && npm run prettier -- --check",
    "lint:scripts:fix": "npm run eslint -- --fix && npm run prettier -- --write",
    "lint:php": "phpcs --extensions=php,module,inc,install,test,profile,theme --ignore=**/testing/*,**/test/*,**/node_modules/*,**/vendor/*,**/bin/*,**/container/*,*.md,$DF_DRUPAL_WEBROOT/autoload.php,$DF_DRUPAL_WEBROOT/*/contrib/*,$DF_DRUPAL_WEBROOT/core/*,$DF_DRUPAL_WEBROOT/libraries/*,$DF_DRUPAL_WEBROOT/sites/*/files/* --standard=Drupal,DrupalPractice ./",
    "lint:php:fix": "phpcbf --extensions=php,module,inc,install,test,profile,theme --ignore=**/testing/*,**/test/*,**/node_modules/*,**/vendor/*,**/bin/*,**/container/*,*.md,$DF_DRUPAL_WEBROOT/autoload.php,$DF_DRUPAL_WEBROOT/*/contrib/*,$DF_DRUPAL_WEBROOT/core/*,$DF_DRUPAL_WEBROOT/libraries/*,$DF_DRUPAL_WEBROOT/sites/*/files/* --standard=Drupal,DrupalPractice ./",
    "prepare": "husky || true",
    "build": "scripts/build-dependencies --environment=prod",
    "build:dev": "scripts/build-dependencies --environment=dev",
    "container:build": "docker compose -f container/release/docker-compose.yml build --no-cache",
    "container:dev": "docker compose -f container/dev/docker-compose.yml build --no-cache",
    "theme:build": "scripts/build-dependencies --type=theme --environment=prod",
    "theme:dev": "scripts/build-dependencies --type=theme --environment=dev",
    "theme:watch": "echo 'This profile does not support watching for changes in the theme.'",
    "module:build": "scripts/build-dependencies --type=module --environment=prod",
    "module:dev": "scripts/build-dependencies --type=module --environment=dev",
    "module:watch": "echo 'This profile does not support watching for changes in modules.'",
    "test:deprecations": "npm run test:deprecations:drupal && npm run test:deprecations:js",
    "test:deprecations:php": "drupal-check -d $DF_DRUPAL_WEBROOT/modules/custom -d $DF_DRUPAL_WEBROOT/themes/custom",
    "test:deprecations:js": "echo 'This project does not define a deprecation check for javascript libraries.'",
    "test:acceptance": "npm run test:acceptance:php; npm run test:acceptance:js; npm run test:acceptance:css",
    "test:acceptance:php": "cd testing/codeception && codecept run acceptance",
    "test:acceptance:js": "cd testing/codeceptjs/ && codeceptjs run --steps --reporter mocha-multi --grep '@js'",
    "test:acceptance:css": "cd testing/codeceptjs/ && codeceptjs run --steps --reporter mocha-multi --grep '@css'",
    "test:functional": "npm run test:functional:php && npm run test:functional:js",
    "test:functional:php": "echo 'This project does not define any functional php tests (e.g. codecept --config=testing/codeception run functional) '",
    "test:functional:js": "echo 'This project does not define any functional javascript tests'",
    "test:api": "npm run test:api:php && npm run test:api:js",
    "test:api:php": "echo 'This project does not define any API php tests (e.g. codecept --config=testing/codeception run api)'",
    "test:api:js": "echo 'This project does not define any API php tests.'",
    "test:unit": "npm run test:unit:php && npm run test:unit:js",
    "test:unit:php": "echo 'This project does not define unit tests.'",
    "test:unit:js": "echo 'This project does not define unit tests.'",
    "test:compatibility": "npm run test:compatibility:php && test:compatibility:js",
    "test:compatibility:php": "phpcs --extensions=php,module,inc,install,test,profile,theme --ignore=**/testing/*,**/test/*,**/node_modules/*,**/vendor/*,**/bin/*,**/container/*,*.md,$DF_DRUPAL_WEBROOT/autoload.php,$DF_DRUPAL_WEBROOT/*/contrib/*,$DF_DRUPAL_WEBROOT/core/*,$DF_DRUPAL_WEBROOT/libraries/*,$DF_DRUPAL_WEBROOT/sites/*/files/* --standard=PHPCompatibility -p --runtime-set testVersion 8.0- ./",
    "test:compatibility:js": "echo 'This project does not define javascript compatibility tests'",
    "test:accessibility": "npm run test:accessibility:axe",
    "test:accessibility:axe": "node testing/axe/runner.js --testhost=$DF_A11Y_TEST_URL",
    "test:lighthouse": "lighthouse-ci $DF_TEST_URL --report=testing/lighthouse/reports $DF_LIGHTHOUSE_OPTIONS",
    "test:lighthouse:batch": "lighthouse-batch -s $DF_TEST_URL -h --out='testing/lighthouse/reports' -g -p '$DF_LIGHTHOUSE_OPTIONS'"
  },
  "repository": {
    "type": "git",
    "url": "git@git.dropfort.com:dropfort/dropfort_drupal_template.git"
  },
  "keywords": [
    "drupal"
  ],
  "author": "Coldfront Labs Inc.",
  "license": "GPL-2.0-or-later",
  "devDependencies": {
    "dropfort-build-dependencies": "^1.0.0"
  },
  "resolutions": {
    "is-fullwidth-code-point": "3.0.0",
    "yargs": "17.7.2"
  }
}
